[{"line":1,"elements":[{"line":3,"name":"","description":"","type":"background","keyword":"Background","steps":[{"name":"url 'https:\/\/reqres.in\/'","result":{"duration":2050553,"status":"passed"},"match":{"location":"karate","arguments":[]},"keyword":"*","line":4,"doc_string":{"content_type":"","value":"15:41:10.937 skipping bootstrap configuration: could not find or read file: classpath:karate-config.js","line":4}},{"name":"path 'api\/users'","result":{"duration":1960480,"status":"passed"},"match":{"location":"karate","arguments":[]},"keyword":"*","line":5}]},{"line":8,"name":"Demo Test Scenario","description":"","id":"demo-test-scenario","type":"scenario","keyword":"Scenario","steps":[{"name":"param page = 2","result":{"duration":2147380,"status":"passed"},"match":{"location":"karate","arguments":[]},"keyword":"*","line":9},{"name":"method GET","result":{"duration":868999597,"status":"passed"},"match":{"location":"karate","arguments":[]},"keyword":"*","line":10,"doc_string":{"content_type":"","value":"15:41:11.136 request:\n1 > GET https:\/\/reqres.in\/api\/users?page=2\n1 > Accept-Encoding: gzip,deflate\n1 > Connection: Keep-Alive\n1 > Host: reqres.in\n1 > User-Agent: Apache-HttpClient\/4.5.5 (Java\/1.8.0_282)\n\n15:41:11.794 response time in milliseconds: 651.48\n1 < 200\n1 < Access-Control-Allow-Origin: *\n1 < Age: 3207\n1 < CF-Cache-Status: HIT\n1 < CF-RAY: 678ec2ae1c3445b3-SIN\n1 < Cache-Control: max-age=14400\n1 < Connection: keep-alive\n1 < Content-Type: application\/json; charset=utf-8\n1 < Date: Tue, 03 Aug 2021 10:11:11 GMT\n1 < Etag: W\/\"406-ut0vzoCuidvyMf8arZpMpJ6ZRDw\"\n1 < Expect-CT: max-age=604800, report-uri=\"https:\/\/report-uri.cloudflare.com\/cdn-cgi\/beacon\/expect-ct\"\n1 < Last-Modified: Thu, 29 Jul 2021 05:05:44 GMT\n1 < NEL: {\"report_to\":\"cf-nel\",\"max_age\":604800}\n1 < Report-To: {\"endpoints\":[{\"url\":\"https:\\\/\\\/a.nel.cloudflare.com\\\/report\\\/v3?s=CyYTUUila1tgmm5los6NfscPYXAAoUmbuYMjnvnzJhZG46HaOnrdR0SLWLC%2BZX25lCl2p1JML8LgLnlwJrya9tRbI%2FPD56DU%2FdUSceTcFRKAXnsi2FM4N0zvdu4%3D\"}],\"group\":\"cf-nel\",\"max_age\":604800}\n1 < Server: cloudflare\n1 < Transfer-Encoding: chunked\n1 < Vary: Accept-Encoding\n1 < Via: 1.1 vegur\n1 < X-Powered-By: Express\n1 < alt-svc: h3-27=\":443\"; ma=86400, h3-28=\":443\"; ma=86400, h3-29=\":443\"; ma=86400, h3=\":443\"; ma=86400\n{\"page\":2,\"per_page\":6,\"total\":12,\"total_pages\":2,\"data\":[{\"id\":7,\"email\":\"michael.lawson@reqres.in\",\"first_name\":\"Michael\",\"last_name\":\"Lawson\",\"avatar\":\"https:\/\/reqres.in\/img\/faces\/7-image.jpg\"},{\"id\":8,\"email\":\"lindsay.ferguson@reqres.in\",\"first_name\":\"Lindsay\",\"last_name\":\"Ferguson\",\"avatar\":\"https:\/\/reqres.in\/img\/faces\/8-image.jpg\"},{\"id\":9,\"email\":\"tobias.funke@reqres.in\",\"first_name\":\"Tobias\",\"last_name\":\"Funke\",\"avatar\":\"https:\/\/reqres.in\/img\/faces\/9-image.jpg\"},{\"id\":10,\"email\":\"byron.fields@reqres.in\",\"first_name\":\"Byron\",\"last_name\":\"Fields\",\"avatar\":\"https:\/\/reqres.in\/img\/faces\/10-image.jpg\"},{\"id\":11,\"email\":\"george.edwards@reqres.in\",\"first_name\":\"George\",\"last_name\":\"Edwards\",\"avatar\":\"https:\/\/reqres.in\/img\/faces\/11-image.jpg\"},{\"id\":12,\"email\":\"rachel.howell@reqres.in\",\"first_name\":\"Rachel\",\"last_name\":\"Howell\",\"avatar\":\"https:\/\/reqres.in\/img\/faces\/12-image.jpg\"}],\"support\":{\"url\":\"https:\/\/reqres.in\/#support-heading\",\"text\":\"To keep ReqRes free, contributions towards server costs are appreciated!\"}}","line":10}},{"name":"status 200","result":{"duration":11615,"status":"passed"},"match":{"location":"karate","arguments":[]},"keyword":"*","line":11},{"name":"match $.page == '#notnull'","result":{"duration":10382400,"status":"passed"},"match":{"location":"karate","arguments":[]},"keyword":"*","line":12}],"tags":[{"name":"@demo","line":7}]}],"name":"src\/test\/resources\/Sample\/DemoTest\/PositiveTests.feature","description":"Sample Test Feature file","id":"sample-test-feature-file","keyword":"Feature","uri":"src\/test\/resources\/Sample\/DemoTest\/PositiveTests.feature"}]